Web Scraping
…
---

```r
imdb_top_250 %>%
  group_by(year) %>%
  summarize(avg_rating = mean(rating)) %>% 
  arrange(desc(avg_rating))
```

```
## `summarise()` ungrouping output (override with `.groups` argument)
```

```
## # A tibble: 84 x 2
##     year avg_rating
##    <dbl>      <dbl>
##  1  1972       9.1 
##  2  1994       8.76
##  3  1946       8.6 
##  4  1977       8.6 
##  5  1990       8.6 
##  6  1974       8.55
##  7  1991       8.55
##  8  1936       8.5 
##  9  2008       8.5 
## 10  2020       8.5 
## # … with 74 more rows
```
…
