Iteration
…
  tibble(time = time_min,
         rating = rating)
}
```

---

```r
map_df(movie_urls, scrape_movie)
```

```
## # A tibble: 50 x 2
##     time rating
##    <dbl> <chr> 
##  1   148 8.8   
##  2   103 6.8   
##  3   120 7.7   
##  4    95 5.2   
##  5   112 7.5   
##  6   138 8.2   
##  7   102 5.9   
##  8   146 7.7   
##  9   117 7.6   
## 10   108 8.0   
## # … with 40 more rows
```
