Subsetting Data
…
`slice()` and `filter()` 

---

`select` is used to select certain variables in the data frame. 

.left-panel[

```r
select(lapd, year, base_pay)
```

```
## # A tibble: 68,564 x 2
##     year base_pay
##    <dbl>    <dbl>
##  1  2013  105765.
##  2  2013   47662.
##  3  2013  101288.
##  4  2013  118087.
##  5  2013   90322.
##  6  2013   62770.
##  7  2013   93718.
##  8  2013       0 
##  9  2013   51246.
## 10  2013   74227.
## # … with 68,554 more rows
```
]

--

.right-panel[

```r
lapd %>% 
  select(year, base_pay)
```

```
## # A tibble: 68,564 x 2
##     year base_pay
##    <dbl>    <dbl>
##  1  2013  105765.
##  2  2013   47662.
##  3  2013  101288.
##  4  2013  118087.
##  5  2013   90322.
##  6  2013   62770.
##  7  2013   93718.
##  8  2013       0 
##  9  2013   51246.
## 10  2013   74227.
## # … with 68,554 more rows
```

]

---

`select` can also be used to drop certain variables if used with a negative sign.

```r
select(lapd, -row_id, -department_title)
```

```
## # A tibble: 68,564 x 33
##     year payroll_departm… record_number job_class_title employment_type
##    <dbl>            <dbl>         <dbl> <chr>           <chr>          
##  1  2013             4301    1000027830 Police Detecti… Full Time      
##  2  2013             4302    1000155488 Clerk Typist    Full Time      
##  3  2013             4301    1000194958 Police Sergean… Full Time      
##  4  2013             4301    1000232317 Police Lieuten… Full Time      
##  5  2013             4302    1000329284 Principal Stor… Full Time      
##  6  2013             4302    1001124320 Police Service… Full Time      
##  7  2013             4301    1001221822 Police Officer… Full Time      
##  8  2013             4301    1001243583 Police Sergean… Full Time      
##  9  2013             4301    1001317832 Police Officer… Full Time      
## 10  2013             4301     100162910 Police Officer… Full Time      
## # … with 68,554 more rows, and 28 more variables: hourly_or_event_rate <dbl>,
## #   projected_annual_salary <dbl>, q1_payments <dbl>, q2_payments <dbl>,
## #   q3_payments <dbl>, q4_payments <dbl>, payments_over_base_pay <dbl>,
## #   percent_over_base_pay <dbl>, total_payments <dbl>, base_pay <dbl>,
## #   permanent_bonus_pay <dbl>, longevity_bonus_pay <dbl>,
## #   temporary_bonus_pay <dbl>, lump_sum_pay <dbl>, overtime_pay <dbl>,
## #   other_pay_adjustments <dbl>, other_pay_payroll_explorer <dbl>, mou <dbl>,
## #   mou_title <chr>, fms_department <dbl>, job_class <dbl>, pay_grade <chr>,
## #   average_health_cost <dbl>, average_dental_cost <dbl>,
…
## Selection helpers

`starts_with()`  
`ends_with()`  
`contains()`  

---

```r
select(lapd, starts_with("q"))
```

```
## # A tibble: 68,564 x 4
##    q1_payments q2_payments q3_payments q4_payments
##          <dbl>       <dbl>       <dbl>       <dbl>
##  1      24931.      29182.      26546.      29605.
##  2      11344.      13212.      11508.      13443.
##  3      24184       28327.      28744.      33225.
##  4      29391.      36591.      32905.      37234.
##  5      20813       24136       21518.      25231.
##  6      16057.      17927.      14150.      17052.
##  7      22162.      25664.      23404.      24586.
##  8          0           0         331.          0 
##  9      11941.      14330.      13404.      14537.
## 10      17046.      20457.      18777.      21371.
## # … with 68,554 more rows
```

---

```r
select(lapd, ends_with("pay"))
```

```
## # A tibble: 68,564 x 8
##    payments_over_b… percent_over_ba… base_pay permanent_bonus… longevity_bonus…
##               <dbl>            <dbl>    <dbl>            <dbl>            <dbl>
##  1            4499.                0  105765.            3174.               0 
##  2            1845.                0   47662.               0             1311.
##  3           13192.                0  101288.            7364.               0 
##  4           18035.                0  118087.            7087.               0 
##  5            1376.                0   90322.               0             1251.
##  6            2415.                0   62770.               0             1726.
##  7            2099.                0   93718.             866.               0 
##  8             331.                0       0                0                0 
##  9            2967.                0   51246.            1540.               0 
## 10            3424.                0   74227.            2233.               0 
## # … with 68,554 more rows, and 3 more variables: temporary_bonus_pay <dbl>,
## #   lump_sum_pay <dbl>, overtime_pay <dbl>
```

---

```r
select(lapd, contains("pay"))
```

```
## # A tibble: 68,564 x 17
##    payroll_departm… q1_payments q2_payments q3_payments q4_payments
##               <dbl>       <dbl>       <dbl>       <dbl>       <dbl>
##  1             4301      24931.      29182.      26546.      29605.
##  2             4302      11344.      13212.      11508.      13443.
##  3             4301      24184       28327.      28744.      33225.
##  4             4301      29391.      36591.      32905.      37234.
##  5             4302      20813       24136       21518.      25231.
##  6             4302      16057.      17927.      14150.      17052.
##  7             4301      22162.      25664.      23404.      24586.
##  8             4301          0           0         331.          0 
##  9             4301      11941.      14330.      13404.      14537.
## 10             4301      17046.      20457.      18777.      21371.
## # … with 68,554 more rows, and 12 more variables: payments_over_base_pay <dbl>,
## #   percent_over_base_pay <dbl>, total_payments <dbl>, base_pay <dbl>,
## #   permanent_bonus_pay <dbl>, longevity_bonus_pay <dbl>,
## #   temporary_bonus_pay <dbl>, lump_sum_pay <dbl>, overtime_pay <dbl>,
## #   other_pay_adjustments <dbl>, other_pay_payroll_explorer <dbl>,
## #   pay_grade <chr>
```
…
--

.pull-right[

`filter()` subsetting rows based on a condition.

The data below includes rows when the recorded year is 2018.

```r
filter(lapd, year == 2018)
```

```
## # A tibble: 14,824 x 35
##    row_id  year department_title payroll_departm… record_number job_class_title
##    <chr>  <dbl> <chr>                       <dbl>         <dbl> <chr>          
##  1 8-100…  2018 Police (LAPD)                4301    1000027830 Police Detecti…
##  2 8-100…  2018 Police (LAPD)                4301    1000194958 Police Sergean…
##  3 8-100…  2018 Police (LAPD)                4301    1000232317 Police Lieuten…
##  4 8-100…  2018 Police (LAPD)                4302    1001124320 Police Service…
##  5 8-100…  2018 Police (LAPD)                4301    1001221822 Police Officer…
##  6 8-100…  2018 Police (LAPD)                4301    1001317832 Police Officer…
##  7 8-100…  2018 Police (LAPD)                4301     100162910 Police Officer…
##  8 8-100…  2018 Police (LAPD)                4301    1001675957 Police Officer…
##  9 8-100…  2018 Police (LAPD)                4302    1001884819 Equipment Mech…
## 10 8-100…  2018 Police (LAPD)                4302    1001893163 Detention Offi…
## # … with 14,814 more rows, and 29 more variables: employment_type <chr>,
## #   hourly_or_event_rate <dbl>, projected_annual_salary <dbl>,
## #   q1_payments <dbl>, q2_payments <dbl>, q3_payments <dbl>, q4_payments <dbl>,
## #   payments_over_base_pay <dbl>, percent_over_base_pay <dbl>,
## #   total_payments <dbl>, base_pay <dbl>, permanent_bonus_pay <dbl>,
## #   longevity_bonus_pay <dbl>, temporary_bonus_pay <dbl>, lump_sum_pay <dbl>,
## #   overtime_pay <dbl>, other_pay_adjustments <dbl>,
## #   other_pay_payroll_explorer <dbl>, mou <dbl>, mou_title <chr>,
## #   fms_department <dbl>, job_class <dbl>, pay_grade <chr>,
…
class: middle

Q. According to [datausa.io](https://datausa.io/profile/geo/los-angeles-ca#:~:text=In%202018%2C%20Los%20Angeles%2C%20CA,%2462%2C474%2C%20a%203.78%25%20increase.) Los Angeles had a median household income of $62474 in 2018. How many LAPD staff members had a base pay higher than $62474 in year 2018 according to this data?

.footnote[Median household income is **not** the same thing as median employee income. Our aim is data wrangling and not necessarily statistical analysis for now.]

---

```r
lapd %>% 
  filter(year == 2018 & base_pay > 62474)
```

```
## # A tibble: 11,690 x 35
##    row_id  year department_title payroll_departm… record_number job_class_title
##    <chr>  <dbl> <chr>                       <dbl>         <dbl> <chr>          
##  1 8-100…  2018 Police (LAPD)                4301    1000027830 Police Detecti…
##  2 8-100…  2018 Police (LAPD)                4301    1000194958 Police Sergean…
##  3 8-100…  2018 Police (LAPD)                4301    1000232317 Police Lieuten…
##  4 8-100…  2018 Police (LAPD)                4302    1001124320 Police Service…
##  5 8-100…  2018 Police (LAPD)                4301    1001221822 Police Officer…
##  6 8-100…  2018 Police (LAPD)                4301    1001317832 Police Officer…
##  7 8-100…  2018 Police (LAPD)                4301     100162910 Police Officer…
##  8 8-100…  2018 Police (LAPD)                4301    1001675957 Police Officer…
##  9 8-100…  2018 Police (LAPD)                4302    1001884819 Equipment Mech…
## 10 8-100…  2018 Police (LAPD)                4302    1001893163 Detention Offi…
## # … with 11,680 more rows, and 29 more variables: employment_type <chr>,
## #   hourly_or_event_rate <dbl>, projected_annual_salary <dbl>,
## #   q1_payments <dbl>, q2_payments <dbl>, q3_payments <dbl>, q4_payments <dbl>,
## #   payments_over_base_pay <dbl>, percent_over_base_pay <dbl>,
## #   total_payments <dbl>, base_pay <dbl>, permanent_bonus_pay <dbl>,
## #   longevity_bonus_pay <dbl>, temporary_bonus_pay <dbl>, lump_sum_pay <dbl>,
## #   overtime_pay <dbl>, other_pay_adjustments <dbl>,
## #   other_pay_payroll_explorer <dbl>, mou <dbl>, mou_title <chr>,
## #   fms_department <dbl>, job_class <dbl>, pay_grade <chr>,
…
---

Q. How many observations are available between 2013 and 2015 including 2013 and 2015?

--

```r
lapd %>% 
  filter(year >= 2013 & year <= 2015)
```

```
## # A tibble: 40,227 x 35
##    row_id  year department_title payroll_departm… record_number job_class_title
##    <chr>  <dbl> <chr>                       <dbl>         <dbl> <chr>          
##  1 3-100…  2013 Police (LAPD)                4301    1000027830 Police Detecti…
##  2 3-100…  2013 Police (LAPD)                4302    1000155488 Clerk Typist   
##  3 3-100…  2013 Police (LAPD)                4301    1000194958 Police Sergean…
##  4 3-100…  2013 Police (LAPD)                4301    1000232317 Police Lieuten…
##  5 3-100…  2013 Police (LAPD)                4302    1000329284 Principal Stor…
##  6 3-100…  2013 Police (LAPD)                4302    1001124320 Police Service…
##  7 3-100…  2013 Police (LAPD)                4301    1001221822 Police Officer…
##  8 3-100…  2013 Police (LAPD)                4301    1001243583 Police Sergean…
##  9 3-100…  2013 Police (LAPD)                4301    1001317832 Police Officer…
## 10 3-100…  2013 Police (LAPD)                4301     100162910 Police Officer…
## # … with 40,217 more rows, and 29 more variables: employment_type <chr>,
## #   hourly_or_event_rate <dbl>, projected_annual_salary <dbl>,
## #   q1_payments <dbl>, q2_payments <dbl>, q3_payments <dbl>, q4_payments <dbl>,
## #   payments_over_base_pay <dbl>, percent_over_base_pay <dbl>,
## #   total_payments <dbl>, base_pay <dbl>, permanent_bonus_pay <dbl>,
## #   longevity_bonus_pay <dbl>, temporary_bonus_pay <dbl>, lump_sum_pay <dbl>,
## #   overtime_pay <dbl>, other_pay_adjustments <dbl>,
## #   other_pay_payroll_explorer <dbl>, mou <dbl>, mou_title <chr>,
## #   fms_department <dbl>, job_class <dbl>, pay_grade <chr>,
…
Moving forward we are only going to focus on year 2018, and use `job_class_title`, `employment_type`, and `base_pay`. Let's clean our data accordingly and move on with the smaller `lapd` data that we need.

---

```r
lapd %>% 
  filter(year == 2018) %>% 
  select(job_class_title, 
         employment_type, 
         base_pay)
```

```
## # A tibble: 14,824 x 3
##    job_class_title                  employment_type base_pay
##    <chr>                            <chr>              <dbl>
##  1 Police Detective II              Full Time        119322.
##  2 Police Sergeant I                Full Time        113271.
##  3 Police Lieutenant II             Full Time        148116 
##  4 Police Service Representative II Full Time         78677.
##  5 Police Officer III               Full Time        109374.
##  6 Police Officer II                Full Time         95002.
##  7 Police Officer II                Full Time         95379.
##  8 Police Officer II                Full Time         95388.
##  9 Equipment Mechanic               Full Time         80496 
## 10 Detention Officer                Full Time         69640 
## # … with 14,814 more rows
```
…
