Aggregating Data
…
<img src="img/data-wrangle.003.jpeg" width="80%" style="display: block; margin: auto;" />

---

Q. What is the median salary for each employment type?

---

```r
lapd %>% 
  group_by(employment_type)
```

```
## # A tibble: 14,824 x 4
## # Groups:   employment_type [3]
##    job_class_title                  employment_type base_pay base_pay_level     
##    <fct>                            <fct>              <dbl> <chr>              
##  1 Police Detective II              Full Time        119322. Greater than Median
##  2 Police Sergeant I                Full Time        113271. Greater than Median
##  3 Police Lieutenant II             Full Time        148116  Greater than Median
##  4 Police Service Representative II Full Time         78677. Greater than Median
##  5 Police Officer III               Full Time        109374. Greater than Median
##  6 Police Officer II                Full Time         95002. Greater than Median
##  7 Police Officer II                Full Time         95379. Greater than Median
##  8 Police Officer II                Full Time         95388. Greater than Median
##  9 Equipment Mechanic               Full Time         80496  Greater than Median
## 10 Detention Officer                Full Time         69640  Greater than Median
## # … with 14,814 more rows
```
…
