Working with Factors
…
---

```r
gss_cat %>% 
  mutate(partyid2 = fct_collapse(partyid,
                                 missing = c("No answer", "Don't know"),
                                 other = "Other party",
                                 rep = c("Strong republican", "Not str republican"),
                                 ind = c("Ind,near rep", "Independent", "Ind,near dem"),
                                 dem = c("Not str democrat", "Strong democrat"))
)
```

```
## # A tibble: 21,483 x 10
##     year marital    age race  rincome  partyid   relig   denom  tvhours partyid2
##    <int> <fct>    <int> <fct> <fct>    <fct>     <fct>   <fct>    <int> <fct>   
##  1  2000 Never m…    26 White $8000 t… Ind,near… Protes… South…      12 ind     
##  2  2000 Divorced    48 White $8000 t… Not str … Protes… Bapti…      NA rep     
##  3  2000 Widowed     67 White Not app… Independ… Protes… No de…       2 ind     
##  4  2000 Never m…    39 White Not app… Ind,near… Orthod… Not a…       4 ind     
##  5  2000 Divorced    25 White Not app… Not str … None    Not a…       1 dem     
##  6  2000 Married     25 White $20000 … Strong d… Protes… South…      NA dem     
##  7  2000 Never m…    36 White $25000 … Not str … Christ… Not a…       3 rep     
##  8  2000 Divorced    44 White $7000 t… Ind,near… Protes… Luthe…      NA ind     
##  9  2000 Married     44 White $25000 … Not str … Protes… Other        0 dem     
## 10  2000 Married     47 White $25000 … Strong r… Protes… South…       3 rep     
## # … with 21,473 more rows
```
…
---

We can use these functions along with other data wrangling functions.

```r
gss_cat %>% 
  mutate(married_divorced = fct_match(marital, c("Married", "Divorced")))
```

```
## # A tibble: 21,483 x 10
##     year marital   age race  rincome partyid relig denom tvhours
##    <int> <fct>   <int> <fct> <fct>   <fct>   <fct> <fct>   <int>
##  1  2000 Never …    26 White $8000 … Ind,ne… Prot… Sout…      12
##  2  2000 Divorc…    48 White $8000 … Not st… Prot… Bapt…      NA
##  3  2000 Widowed    67 White Not ap… Indepe… Prot… No d…       2
##  4  2000 Never …    39 White Not ap… Ind,ne… Orth… Not …       4
##  5  2000 Divorc…    25 White Not ap… Not st… None  Not …       1
##  6  2000 Married    25 White $20000… Strong… Prot… Sout…      NA
##  7  2000 Never …    36 White $25000… Not st… Chri… Not …       3
##  8  2000 Divorc…    44 White $7000 … Ind,ne… Prot… Luth…      NA
##  9  2000 Married    44 White $25000… Not st… Prot… Other       0
## 10  2000 Married    47 White $25000… Strong… Prot… Sout…       3
## # … with 21,473 more rows, and 1 more variable: married_divorced <lgl>
```
…
