Working with Strings
…
```
## [1] "MONICA AND THE GANG INTRODUCE RACHEL TO THE \"REAL WORLD\" AFTER SHE LEAVES HER FIANCÉ AT THE ALTAR."
```

---

Change all the titles to capital letters.

```r
friends %>% 
  mutate(title = str_to_upper(title))
```

```
## # A tibble: 235 x 5
##    season episode title                description                        rating
##     <dbl>   <dbl> <chr>                <chr>                               <dbl>
##  1      1       1 THE ONE WHERE MONIC… "Monica and the gang introduce Ra…    8.3
##  2      1       2 THE ONE WITH THE SO… "Ross finds out his ex-wife is pr…    8  
##  3      1       3 THE ONE WITH THE TH… "Monica becomes irritated when ev…    8.2
##  4      1       4 THE ONE WITH GEORGE… "Joey and Chandler take Ross to a…    8.1
##  5      1       5 THE ONE WITH THE EA… "Eager to spend time with Rachel,…    8.5
##  6      1       6 THE ONE WITH THE BU… "Monica's obsessiveness is put to…    8.1
##  7      1       7 THE ONE WITH THE BL… "When New York suffers from a bla…    9  
##  8      1       8 THE ONE WHERE NANA … "Monica and Ross mourn the loss o…    8.1
##  9      1       9 THE ONE WHERE UNDER… "The gang's plans for Thanksgivin…    8.2
## 10      1      10 THE ONE WITH THE MO… "The gang make (and break) a pact…    8.1
## # … with 225 more rows
```
…
